info face="Mario-Kart-DS" size=64 bold=0 italic=0 charset="" unicode=0 stretchH=100 smooth=1 aa=1 padding=0,0,0,0 spacing=2,2
common lineHeight=67 base=44 scaleW=512 scaleH=512 pages=1 packed=0
page id=0 file="RetroFont.png"
chars count=95
char id=32     x=295   y=377   width=0     height=0     xoffset=0     yoffset=59    xadvance=9     page=0 chnl=0 letter="space"
char id=33     x=401   y=332   width=19    height=43    xoffset=0     yoffset=16    xadvance=17    page=0 chnl=0 letter="!"
char id=34     x=115   y=377   width=24    height=23    xoffset=3     yoffset=2     xadvance=24    page=0 chnl=0 letter="""
char id=35     x=170   y=185   width=47    height=54    xoffset=0     yoffset=5     xadvance=40    page=0 chnl=0 letter="#"
char id=36     x=279   y=2     width=34    height=61    xoffset=7     yoffset=2     xadvance=40    page=0 chnl=0 letter="$"
char id=37     x=364   y=2     width=50    height=56    xoffset=0     yoffset=4     xadvance=43    page=0 chnl=0 letter="%"
char id=38     x=373   y=185   width=43    height=43    xoffset=0     yoffset=16    xadvance=41    page=0 chnl=0 letter="&"
char id=39     x=98    y=377   width=15    height=24    xoffset=3     yoffset=3     xadvance=15    page=0 chnl=0 letter="'"
char id=40     x=111   y=2     width=22    height=66    xoffset=4     yoffset=2     xadvance=21    page=0 chnl=0 letter="("
char id=41     x=135   y=2     width=22    height=66    xoffset=2     yoffset=2     xadvance=21    page=0 chnl=0 letter=")"
char id=42     x=2     y=377   width=31    height=30    xoffset=3     yoffset=6     xadvance=31    page=0 chnl=0 letter="*"
char id=43     x=235   y=185   width=44    height=44    xoffset=7     yoffset=15    xadvance=51    page=0 chnl=0 letter="+"
char id=44     x=35    y=377   width=15    height=25    xoffset=6     yoffset=44    xadvance=20    page=0 chnl=0 letter=","
char id=45     x=208   y=377   width=27    height=15    xoffset=0     yoffset=28    xadvance=25    page=0 chnl=0 letter="-"
char id=46     x=237   y=377   width=15    height=15    xoffset=0     yoffset=44    xadvance=13    page=0 chnl=0 letter="."
char id=47     x=217   y=2     width=29    height=63    xoffset=6     yoffset=5     xadvance=34    page=0 chnl=0 letter="/"
char id=48     x=362   y=242   width=39    height=43    xoffset=0     yoffset=16    xadvance=37    page=0 chnl=0 letter="0"
char id=49     x=422   y=332   width=19    height=43    xoffset=0     yoffset=16    xadvance=17    page=0 chnl=0 letter="1"
char id=50     x=43    y=332   width=35    height=43    xoffset=0     yoffset=16    xadvance=33    page=0 chnl=0 letter="2"
char id=51     x=80    y=332   width=35    height=43    xoffset=0     yoffset=16    xadvance=33    page=0 chnl=0 letter="3"
char id=52     x=418   y=185   width=43    height=43    xoffset=0     yoffset=16    xadvance=41    page=0 chnl=0 letter="4"
char id=53     x=117   y=332   width=35    height=43    xoffset=0     yoffset=16    xadvance=33    page=0 chnl=0 letter="5"
char id=54     x=463   y=185   width=43    height=43    xoffset=0     yoffset=16    xadvance=41    page=0 chnl=0 letter="6"
char id=55     x=403   y=242   width=39    height=43    xoffset=0     yoffset=16    xadvance=37    page=0 chnl=0 letter="7"
char id=56     x=2     y=242   width=43    height=43    xoffset=0     yoffset=16    xadvance=41    page=0 chnl=0 letter="8"
char id=57     x=47    y=242   width=43    height=43    xoffset=0     yoffset=16    xadvance=41    page=0 chnl=0 letter="9"
char id=58     x=486   y=332   width=14    height=41    xoffset=7     yoffset=18    xadvance=20    page=0 chnl=0 letter=":"
char id=59     x=219   y=185   width=14    height=51    xoffset=7     yoffset=18    xadvance=20    page=0 chnl=0 letter=";"
char id=60     x=281   y=185   width=44    height=44    xoffset=7     yoffset=15    xadvance=51    page=0 chnl=0 letter="<"
char id=61     x=52    y=377   width=44    height=24    xoffset=7     yoffset=25    xadvance=51    page=0 chnl=0 letter="="
char id=62     x=327   y=185   width=44    height=44    xoffset=7     yoffset=15    xadvance=51    page=0 chnl=0 letter=">"
char id=63     x=444   y=242   width=39    height=43    xoffset=0     yoffset=16    xadvance=37    page=0 chnl=0 letter="?"
char id=64     x=2     y=2     width=57    height=67    xoffset=3     yoffset=5     xadvance=55    page=0 chnl=0 letter="@"
char id=65     x=267   y=71    width=47    height=55    xoffset=0     yoffset=12    xadvance=45    page=0 chnl=0 letter="A"
char id=66     x=316   y=71    width=47    height=55    xoffset=0     yoffset=12    xadvance=45    page=0 chnl=0 letter="B"
char id=67     x=365   y=71    width=47    height=55    xoffset=0     yoffset=12    xadvance=45    page=0 chnl=0 letter="C"
char id=68     x=345   y=128   width=43    height=55    xoffset=0     yoffset=12    xadvance=41    page=0 chnl=0 letter="D"
char id=69     x=390   y=128   width=43    height=55    xoffset=0     yoffset=12    xadvance=41    page=0 chnl=0 letter="E"
char id=70     x=435   y=128   width=43    height=55    xoffset=0     yoffset=12    xadvance=41    page=0 chnl=0 letter="F"
char id=71     x=414   y=71    width=47    height=55    xoffset=0     yoffset=12    xadvance=45    page=0 chnl=0 letter="G"
char id=72     x=315   y=2     width=47    height=59    xoffset=0     yoffset=8     xadvance=45    page=0 chnl=0 letter="H"
char id=73     x=137   y=185   width=31    height=55    xoffset=0     yoffset=12    xadvance=29    page=0 chnl=0 letter="I"
char id=74     x=463   y=71    width=47    height=55    xoffset=0     yoffset=12    xadvance=45    page=0 chnl=0 letter="J"
char id=75     x=2     y=185   width=43    height=55    xoffset=0     yoffset=12    xadvance=41    page=0 chnl=0 letter="K"
char id=76     x=2     y=128   width=47    height=55    xoffset=0     yoffset=12    xadvance=45    page=0 chnl=0 letter="L"
char id=77     x=416   y=2     width=51    height=55    xoffset=0     yoffset=12    xadvance=49    page=0 chnl=0 letter="M"
char id=78     x=51    y=128   width=47    height=55    xoffset=0     yoffset=12    xadvance=45    page=0 chnl=0 letter="N"
char id=79     x=100   y=128   width=47    height=55    xoffset=0     yoffset=12    xadvance=45    page=0 chnl=0 letter="O"
char id=80     x=47    y=185   width=43    height=55    xoffset=0     yoffset=12    xadvance=41    page=0 chnl=0 letter="P"
char id=81     x=2     y=71    width=51    height=55    xoffset=0     yoffset=12    xadvance=49    page=0 chnl=0 letter="Q"
char id=82     x=149   y=128   width=47    height=55    xoffset=0     yoffset=12    xadvance=45    page=0 chnl=0 letter="R"
char id=83     x=198   y=128   width=47    height=55    xoffset=0     yoffset=12    xadvance=45    page=0 chnl=0 letter="S"
char id=84     x=247   y=128   width=47    height=55    xoffset=0     yoffset=12    xadvance=45    page=0 chnl=0 letter="T"
char id=85     x=55    y=71    width=51    height=55    xoffset=0     yoffset=12    xadvance=49    page=0 chnl=0 letter="U"
char id=86     x=108   y=71    width=51    height=55    xoffset=0     yoffset=12    xadvance=49    page=0 chnl=0 letter="V"
char id=87     x=161   y=71    width=51    height=55    xoffset=0     yoffset=12    xadvance=49    page=0 chnl=0 letter="W"
char id=88     x=296   y=128   width=47    height=55    xoffset=0     yoffset=12    xadvance=45    page=0 chnl=0 letter="X"
char id=89     x=214   y=71    width=51    height=55    xoffset=0     yoffset=12    xadvance=49    page=0 chnl=0 letter="Y"
char id=90     x=92    y=185   width=43    height=55    xoffset=0     yoffset=12    xadvance=41    page=0 chnl=0 letter="Z"
char id=91     x=159   y=2     width=20    height=66    xoffset=6     yoffset=2     xadvance=21    page=0 chnl=0 letter="["
char id=92     x=248   y=2     width=29    height=63    xoffset=6     yoffset=5     xadvance=34    page=0 chnl=0 letter="\"
char id=93     x=181   y=2     width=20    height=66    xoffset=2     yoffset=2     xadvance=21    page=0 chnl=0 letter="]"
char id=94     x=443   y=332   width=41    height=41    xoffset=3     yoffset=6     xadvance=40    page=0 chnl=0 letter="^"
char id=95     x=254   y=377   width=39    height=12    xoffset=0     yoffset=58    xadvance=32    page=0 chnl=0 letter="_"
char id=96     x=184   y=377   width=22    height=18    xoffset=12    yoffset=1     xadvance=39    page=0 chnl=0 letter="`"
char id=97     x=2     y=287   width=39    height=43    xoffset=0     yoffset=16    xadvance=37    page=0 chnl=0 letter="a"
char id=98     x=43    y=287   width=39    height=43    xoffset=0     yoffset=16    xadvance=37    page=0 chnl=0 letter="b"
char id=99     x=84    y=287   width=39    height=43    xoffset=0     yoffset=16    xadvance=37    page=0 chnl=0 letter="c"
char id=100    x=154   y=332   width=35    height=43    xoffset=0     yoffset=16    xadvance=33    page=0 chnl=0 letter="d"
char id=101    x=191   y=332   width=35    height=43    xoffset=0     yoffset=16    xadvance=33    page=0 chnl=0 letter="e"
char id=102    x=228   y=332   width=35    height=43    xoffset=0     yoffset=16    xadvance=33    page=0 chnl=0 letter="f"
char id=103    x=125   y=287   width=39    height=43    xoffset=0     yoffset=16    xadvance=37    page=0 chnl=0 letter="g"
char id=104    x=166   y=287   width=39    height=43    xoffset=0     yoffset=16    xadvance=37    page=0 chnl=0 letter="h"
char id=105    x=376   y=332   width=23    height=43    xoffset=0     yoffset=16    xadvance=21    page=0 chnl=0 letter="i"
char id=106    x=207   y=287   width=39    height=43    xoffset=0     yoffset=16    xadvance=37    page=0 chnl=0 letter="j"
char id=107    x=265   y=332   width=35    height=43    xoffset=0     yoffset=16    xadvance=33    page=0 chnl=0 letter="k"
char id=108    x=248   y=287   width=39    height=43    xoffset=0     yoffset=16    xadvance=37    page=0 chnl=0 letter="l"
char id=109    x=92    y=242   width=43    height=43    xoffset=0     yoffset=16    xadvance=41    page=0 chnl=0 letter="m"
char id=110    x=289   y=287   width=39    height=43    xoffset=0     yoffset=16    xadvance=37    page=0 chnl=0 letter="n"
char id=111    x=330   y=287   width=39    height=43    xoffset=0     yoffset=16    xadvance=37    page=0 chnl=0 letter="o"
char id=112    x=302   y=332   width=35    height=43    xoffset=0     yoffset=16    xadvance=33    page=0 chnl=0 letter="p"
char id=113    x=137   y=242   width=43    height=43    xoffset=0     yoffset=16    xadvance=41    page=0 chnl=0 letter="q"
char id=114    x=371   y=287   width=39    height=43    xoffset=0     yoffset=16    xadvance=37    page=0 chnl=0 letter="r"
char id=115    x=412   y=287   width=39    height=43    xoffset=0     yoffset=16    xadvance=37    page=0 chnl=0 letter="s"
char id=116    x=453   y=287   width=39    height=43    xoffset=0     yoffset=16    xadvance=37    page=0 chnl=0 letter="t"
char id=117    x=182   y=242   width=43    height=43    xoffset=0     yoffset=16    xadvance=41    page=0 chnl=0 letter="u"
char id=118    x=227   y=242   width=43    height=43    xoffset=0     yoffset=16    xadvance=41    page=0 chnl=0 letter="v"
char id=119    x=272   y=242   width=43    height=43    xoffset=0     yoffset=16    xadvance=41    page=0 chnl=0 letter="w"
char id=120    x=2     y=332   width=39    height=43    xoffset=0     yoffset=16    xadvance=37    page=0 chnl=0 letter="x"
char id=121    x=317   y=242   width=43    height=43    xoffset=0     yoffset=16    xadvance=41    page=0 chnl=0 letter="y"
char id=122    x=339   y=332   width=35    height=43    xoffset=0     yoffset=16    xadvance=33    page=0 chnl=0 letter="z"
char id=123    x=61    y=2     width=23    height=66    xoffset=1     yoffset=2     xadvance=21    page=0 chnl=0 letter="{"
char id=124    x=203   y=2     width=12    height=66    xoffset=10    yoffset=2     xadvance=24    page=0 chnl=0 letter="|"
char id=125    x=86    y=2     width=23    height=66    xoffset=4     yoffset=2     xadvance=21    page=0 chnl=0 letter="}"
char id=126    x=141   y=377   width=41    height=19    xoffset=3     yoffset=27    xadvance=40    page=0 chnl=0 letter="~"
